{
    "/js/app.js": "/js/app.js",
    "/css/app.css": "/css/app.css",
    "/js/controllers/dashboardController.js": "/js/controllers/dashboardController.js",
    "/js/controllers/employeesController.js": "/js/controllers/employeesController.js",
    "/js/controllers/holidaysController.js": "/js/controllers/holidaysController.js",
    "/js/controllers/leaveyearController.js": "/js/controllers/leaveyearController.js",
    "/js/controllers/newemployeeController.js": "/js/controllers/newemployeeController.js"
}
